OTP_Wave/dump.vcd
$date
	Mon Dec 11 19:11:15 2023
$end
$version
	Icarus Verilog
$end
$timescale
	1s
$end
$scope module Teste_One_Time_Pad $end
$var reg 1 ! a $end
$upscope $end
$scope module Teste_One_Time_Pad $end
$var reg 1 " b $end
$upscope $end
$scope module Teste_One_Time_Pad $end
$var wire 1 # out $end
$upscope $end
$scope module Teste_One_Time_Pad $end
$var reg 64 $ ciphered_message [63:0] $end
$upscope $end
$scope module Teste_One_Time_Pad $end
$var reg 64 % deciphered_message [63:0] $end
$upscope $end
$enddefinitions $end
#0
$dumpvars
bx %
bx $
0#
0"
0!
$end
#1
1"
1!
b0xxxxxxxxxxxxxxxxxxxxxxxxxxxxxxxxxxxxxxxxxxxxxxxxxxxxxxxxxxxxxxx $
#2
b0xxxxxxxxxxxxxxxxxxxxxxxxxxxxxxxxxxxxxxxxxxxxxxxxxxxxxxxxxxxxxx $
#3
1#
0"
b0xxxxxxxxxxxxxxxxxxxxxxxxxxxxxxxxxxxxxxxxxxxxxxxxxxxxxxxxxxxxx $
#4
0#
0!
b1xxxxxxxxxxxxxxxxxxxxxxxxxxxxxxxxxxxxxxxxxxxxxxxxxxxxxxxxxxxx $
#5
1#
1!
b10xxxxxxxxxxxxxxxxxxxxxxxxxxxxxxxxxxxxxxxxxxxxxxxxxxxxxxxxxxx $
#6
1"
0!
b101xxxxxxxxxxxxxxxxxxxxxxxxxxxxxxxxxxxxxxxxxxxxxxxxxxxxxxxxxx $
#7
b1011xxxxxxxxxxxxxxxxxxxxxxxxxxxxxxxxxxxxxxxxxxxxxxxxxxxxxxxxx $
#8
0#
0"
b10111xxxxxxxxxxxxxxxxxxxxxxxxxxxxxxxxxxxxxxxxxxxxxxxxxxxxxxxx $
#9
1"
1!
b101110xxxxxxxxxxxxxxxxxxxxxxxxxxxxxxxxxxxxxxxxxxxxxxxxxxxxxxx $
#10
b1011100xxxxxxxxxxxxxxxxxxxxxxxxxxxxxxxxxxxxxxxxxxxxxxxxxxxxxx $
#11
1#
0"
b10111000xxxxxxxxxxxxxxxxxxxxxxxxxxxxxxxxxxxxxxxxxxxxxxxxxxxxx $
#12
1"
0!
b101110001xxxxxxxxxxxxxxxxxxxxxxxxxxxxxxxxxxxxxxxxxxxxxxxxxxxx $
#13
0#
0"
b1011100011xxxxxxxxxxxxxxxxxxxxxxxxxxxxxxxxxxxxxxxxxxxxxxxxxxx $
#14
1#
1!
b10111000110xxxxxxxxxxxxxxxxxxxxxxxxxxxxxxxxxxxxxxxxxxxxxxxxxx $
#15
1"
0!
b101110001101xxxxxxxxxxxxxxxxxxxxxxxxxxxxxxxxxxxxxxxxxxxxxxxxx $
#16
0#
0"
b1011100011011xxxxxxxxxxxxxxxxxxxxxxxxxxxxxxxxxxxxxxxxxxxxxxxx $
#17
1"
1!
b10111000110110xxxxxxxxxxxxxxxxxxxxxxxxxxxxxxxxxxxxxxxxxxxxxxx $
#18
b101110001101100xxxxxxxxxxxxxxxxxxxxxxxxxxxxxxxxxxxxxxxxxxxxxx $
#19
0"
0!
b1011100011011000xxxxxxxxxxxxxxxxxxxxxxxxxxxxxxxxxxxxxxxxxxxxx $
#20
1#
1"
b10111000110110000xxxxxxxxxxxxxxxxxxxxxxxxxxxxxxxxxxxxxxxxxxxx $
#21
b101110001101100001xxxxxxxxxxxxxxxxxxxxxxxxxxxxxxxxxxxxxxxxxxx $
#22
b1011100011011000011xxxxxxxxxxxxxxxxxxxxxxxxxxxxxxxxxxxxxxxxxx $
#23
0"
1!
b10111000110110000111xxxxxxxxxxxxxxxxxxxxxxxxxxxxxxxxxxxxxxxxx $
#24
0#
0!
b101110001101100001111xxxxxxxxxxxxxxxxxxxxxxxxxxxxxxxxxxxxxxxx $
#25
1"
1!
b1011100011011000011110xxxxxxxxxxxxxxxxxxxxxxxxxxxxxxxxxxxxxxx $
#26
b10111000110110000111100xxxxxxxxxxxxxxxxxxxxxxxxxxxxxxxxxxxxxx $
#27
0"
0!
b101110001101100001111000xxxxxxxxxxxxxxxxxxxxxxxxxxxxxxxxxxxxx $
#28
b1011100011011000011110000xxxxxxxxxxxxxxxxxxxxxxxxxxxxxxxxxxxx $
#29
b10111000110110000111100000xxxxxxxxxxxxxxxxxxxxxxxxxxxxxxxxxxx $
#30
1"
1!
b101110001101100001111000000xxxxxxxxxxxxxxxxxxxxxxxxxxxxxxxxxx $
#31
1#
0!
b1011100011011000011110000000xxxxxxxxxxxxxxxxxxxxxxxxxxxxxxxxx $
#32
0#
0"
b10111000110110000111100000001xxxxxxxxxxxxxxxxxxxxxxxxxxxxxxxx $
#33
1"
1!
b101110001101100001111000000010xxxxxxxxxxxxxxxxxxxxxxxxxxxxxxx $
#34
b1011100011011000011110000000100xxxxxxxxxxxxxxxxxxxxxxxxxxxxxx $
#35
0"
0!
b10111000110110000111100000001000xxxxxxxxxxxxxxxxxxxxxxxxxxxxx $
#36
b101110001101100001111000000010000xxxxxxxxxxxxxxxxxxxxxxxxxxxx $
#37
b1011100011011000011110000000100000xxxxxxxxxxxxxxxxxxxxxxxxxxx $
#38
1#
1"
b10111000110110000111100000001000000xxxxxxxxxxxxxxxxxxxxxxxxxx $
#39
0#
1!
b101110001101100001111000000010000001xxxxxxxxxxxxxxxxxxxxxxxxx $
#40
0"
0!
b1011100011011000011110000000100000010xxxxxxxxxxxxxxxxxxxxxxxx $
#41
1"
1!
b10111000110110000111100000001000000100xxxxxxxxxxxxxxxxxxxxxxx $
#42
b101110001101100001111000000010000001000xxxxxxxxxxxxxxxxxxxxxx $
#43
0"
0!
b1011100011011000011110000000100000010000xxxxxxxxxxxxxxxxxxxxx $
#44
1"
1!
b10111000110110000111100000001000000100000xxxxxxxxxxxxxxxxxxxx $
#45
1#
0"
b101110001101100001111000000010000001000000xxxxxxxxxxxxxxxxxxx $
#46
0#
0!
b1011100011011000011110000000100000010000001xxxxxxxxxxxxxxxxxx $
#47
1#
1"
b10111000110110000111100000001000000100000010xxxxxxxxxxxxxxxxx $
#48
0#
0"
b101110001101100001111000000010000001000000101xxxxxxxxxxxxxxxx $
#49
1"
1!
b1011100011011000011110000000100000010000001010xxxxxxxxxxxxxxx $
#50
b10111000110110000111100000001000000100000010100xxxxxxxxxxxxxx $
#51
0"
0!
b101110001101100001111000000010000001000000101000xxxxxxxxxxxxx $
#52
1"
1!
b1011100011011000011110000000100000010000001010000xxxxxxxxxxxx $
#53
1#
0!
b10111000110110000111100000001000000100000010100000xxxxxxxxxxx $
#54
b101110001101100001111000000010000001000000101000001xxxxxxxxxx $
#55
0#
0"
b1011100011011000011110000000100000010000001010000011xxxxxxxxx $
#56
b10111000110110000111100000001000000100000010100000110xxxxxxxx $
#57
1"
1!
b101110001101100001111000000010000001000000101000001100xxxxxxx $
#58
b1011100011011000011110000000100000010000001010000011000xxxxxx $
#59
0"
0!
b10111000110110000111100000001000000100000010100000110000xxxxx $
#60
1#
1!
b101110001101100001111000000010000001000000101000001100000xxxx $
#61
b1011100011011000011110000000100000010000001010000011000001xxx $
#62
0#
1"
b10111000110110000111100000001000000100000010100000110000011xx $
#63
b101110001101100001111000000010000001000000101000001100000110x $
#64
0"
0!
b1011100011011000011110000000100000010000001010000011000001100 $
#65
1#
1"
b0xxxxxxxxxxxxxxxxxxxxxxxxxxxxxxxxxxxxxxxxxxxxxxxxxxxxxxxxxxxxxxx %
#66
b1xxxxxxxxxxxxxxxxxxxxxxxxxxxxxxxxxxxxxxxxxxxxxxxxxxxxxxxxxxxxxx %
#67
0"
1!
b11xxxxxxxxxxxxxxxxxxxxxxxxxxxxxxxxxxxxxxxxxxxxxxxxxxxxxxxxxxxxx %
#68
0#
0!
b111xxxxxxxxxxxxxxxxxxxxxxxxxxxxxxxxxxxxxxxxxxxxxxxxxxxxxxxxxxxx %
#69
1#
1!
b1110xxxxxxxxxxxxxxxxxxxxxxxxxxxxxxxxxxxxxxxxxxxxxxxxxxxxxxxxxxx %
#70
0#
1"
b11101xxxxxxxxxxxxxxxxxxxxxxxxxxxxxxxxxxxxxxxxxxxxxxxxxxxxxxxxxx %
#71
b111010xxxxxxxxxxxxxxxxxxxxxxxxxxxxxxxxxxxxxxxxxxxxxxxxxxxxxxxxx %
#72
0"
0!
b1110100xxxxxxxxxxxxxxxxxxxxxxxxxxxxxxxxxxxxxxxxxxxxxxxxxxxxxxxx %
#73
1#
1"
b11101000xxxxxxxxxxxxxxxxxxxxxxxxxxxxxxxxxxxxxxxxxxxxxxxxxxxxxxx %
#74
b111010001xxxxxxxxxxxxxxxxxxxxxxxxxxxxxxxxxxxxxxxxxxxxxxxxxxxxxx %
#75
0"
1!
b1110100011xxxxxxxxxxxxxxxxxxxxxxxxxxxxxxxxxxxxxxxxxxxxxxxxxxxxx %
#76
0#
1"
b11101000111xxxxxxxxxxxxxxxxxxxxxxxxxxxxxxxxxxxxxxxxxxxxxxxxxxxx %
#77
0"
0!
b111010001110xxxxxxxxxxxxxxxxxxxxxxxxxxxxxxxxxxxxxxxxxxxxxxxxxxx %
#78
1#
1!
b1110100011100xxxxxxxxxxxxxxxxxxxxxxxxxxxxxxxxxxxxxxxxxxxxxxxxxx %
#79
0#
1"
b11101000111001xxxxxxxxxxxxxxxxxxxxxxxxxxxxxxxxxxxxxxxxxxxxxxxxx %
#80
0"
0!
b111010001110010xxxxxxxxxxxxxxxxxxxxxxxxxxxxxxxxxxxxxxxxxxxxxxxx %
#81
1#
1"
b1110100011100100xxxxxxxxxxxxxxxxxxxxxxxxxxxxxxxxxxxxxxxxxxxxxxx %
#82
b11101000111001001xxxxxxxxxxxxxxxxxxxxxxxxxxxxxxxxxxxxxxxxxxxxxx %
#83
0#
0"
b111010001110010011xxxxxxxxxxxxxxxxxxxxxxxxxxxxxxxxxxxxxxxxxxxxx %
#84
1"
1!
b1110100011100100110xxxxxxxxxxxxxxxxxxxxxxxxxxxxxxxxxxxxxxxxxxxx %
#85
b11101000111001001100xxxxxxxxxxxxxxxxxxxxxxxxxxxxxxxxxxxxxxxxxxx %
#86
b111010001110010011000xxxxxxxxxxxxxxxxxxxxxxxxxxxxxxxxxxxxxxxxxx %
#87
1#
0"
b1110100011100100110000xxxxxxxxxxxxxxxxxxxxxxxxxxxxxxxxxxxxxxxxx %
#88
0#
0!
b11101000111001001100001xxxxxxxxxxxxxxxxxxxxxxxxxxxxxxxxxxxxxxxx %
#89
1#
1"
b111010001110010011000010xxxxxxxxxxxxxxxxxxxxxxxxxxxxxxxxxxxxxxx %
#90
b1110100011100100110000101xxxxxxxxxxxxxxxxxxxxxxxxxxxxxxxxxxxxxx %
#91
0#
0"
b11101000111001001100001011xxxxxxxxxxxxxxxxxxxxxxxxxxxxxxxxxxxxx %
#92
b111010001110010011000010110xxxxxxxxxxxxxxxxxxxxxxxxxxxxxxxxxxxx %
#93
b1110100011100100110000101100xxxxxxxxxxxxxxxxxxxxxxxxxxxxxxxxxxx %
#94
1#
1"
b11101000111001001100001011000xxxxxxxxxxxxxxxxxxxxxxxxxxxxxxxxxx %
#95
0#
1!
b111010001110010011000010110001xxxxxxxxxxxxxxxxxxxxxxxxxxxxxxxxx %
#96
0"
0!
b1110100011100100110000101100010xxxxxxxxxxxxxxxxxxxxxxxxxxxxxxxx %
#97
1#
1"
b11101000111001001100001011000100xxxxxxxxxxxxxxxxxxxxxxxxxxxxxxx %
#98
b111010001110010011000010110001001xxxxxxxxxxxxxxxxxxxxxxxxxxxxxx %
#99
0#
0"
b1110100011100100110000101100010011xxxxxxxxxxxxxxxxxxxxxxxxxxxxx %
#100
b11101000111001001100001011000100110xxxxxxxxxxxxxxxxxxxxxxxxxxxx %
#101
b111010001110010011000010110001001100xxxxxxxxxxxxxxxxxxxxxxxxxxx %
#102
1"
1!
b1110100011100100110000101100010011000xxxxxxxxxxxxxxxxxxxxxxxxxx %
#103
1#
0!
b11101000111001001100001011000100110000xxxxxxxxxxxxxxxxxxxxxxxxx %
#104
0#
0"
b111010001110010011000010110001001100001xxxxxxxxxxxxxxxxxxxxxxxx %
#105
1#
1"
b1110100011100100110000101100010011000010xxxxxxxxxxxxxxxxxxxxxxx %
#106
b11101000111001001100001011000100110000101xxxxxxxxxxxxxxxxxxxxxx %
#107
0#
0"
b111010001110010011000010110001001100001011xxxxxxxxxxxxxxxxxxxxx %
#108
1#
1"
b1110100011100100110000101100010011000010110xxxxxxxxxxxxxxxxxxxx %
#109
0"
1!
b11101000111001001100001011000100110000101101xxxxxxxxxxxxxxxxxxx %
#110
0#
0!
b111010001110010011000010110001001100001011011xxxxxxxxxxxxxxxxxx %
#111
1"
1!
b1110100011100100110000101100010011000010110110xxxxxxxxxxxxxxxxx %
#112
0"
0!
b11101000111001001100001011000100110000101101100xxxxxxxxxxxxxxxx %
#113
1#
1"
b111010001110010011000010110001001100001011011000xxxxxxxxxxxxxxx %
#114
b1110100011100100110000101100010011000010110110001xxxxxxxxxxxxxx %
#115
0#
0"
b11101000111001001100001011000100110000101101100011xxxxxxxxxxxxx %
#116
1#
1"
b111010001110010011000010110001001100001011011000110xxxxxxxxxxxx %
#117
0#
1!
b1110100011100100110000101100010011000010110110001101xxxxxxxxxxx %
#118
b11101000111001001100001011000100110000101101100011010xxxxxxxxxx %
#119
0"
0!
b111010001110010011000010110001001100001011011000110100xxxxxxxxx %
#120
b1110100011100100110000101100010011000010110110001101000xxxxxxxx %
#121
1#
1"
b11101000111001001100001011000100110000101101100011010000xxxxxxx %
#122
b111010001110010011000010110001001100001011011000110100001xxxxxx %
#123
0#
0"
b1110100011100100110000101100010011000010110110001101000011xxxxx %
#124
1#
1!
b11101000111001001100001011000100110000101101100011010000110xxxx %
#125
b111010001110010011000010110001001100001011011000110100001101xxx %
#126
1"
0!
b1110100011100100110000101100010011000010110110001101000011011xx %
#127
b11101000111001001100001011000100110000101101100011010000110111x %
#128
b111010001110010011000010110001001100001011011000110100001101111 %
